880///////Samara////
18////////Roderick//
795///////Ricky/////
855///////Malcolm///
705///////Guy///////
566///////Adela/////
364///////Mertie////
883///////Robyn/////
899///////Alysson///
51////////Erin//////
841///////Kamryn////
791///////Brady/////
414///////Reilly////
384///////Vicente///
337///////Pearline//
833///////Ophelia///
423///////Rosemary//
265///////Kimberly//
862///////Zoie//////
157///////Brycen////
786///////Marquise//
10////////Haven/////
447///////Laisha////
896///////Jeffry////
379///////Retha/////
247///////Emile/////
422///////Freddy////
740///////Trudie////
532///////Rogers////
726///////Zelda/////
73////////Mohammad//
458///////Rodrigo///
451///////Caroline//
61////////Raymond///
228///////Elyse/////
101///////Layne/////
1/////////Alberto///
381///////Florida///
837///////King//////
321///////Ruben/////
286///////Loyal/////
339///////Tevin/////
119///////Tara//////
513///////Otha//////
300///////Petra/////
704///////Zul///////
265///////Ashlee////
82////////Jovan/////
568///////Hanna/////
196///////Jordane///
123///////Brandon///
367///////Laurie////
536///////Cleora////
206///////Zander////
533///////Alexys////
913///////Junius////
539///////Warren////
453///////Eldridge//
786///////Haleigh///
380///////Josefina//
295///////Reyna/////
217///////Hilario///
826///////Barrett///
364///////Porter////
72////////Gilbert///
68////////Sienna////
62////////Watson////
461///////Rupert////
705///////Maxime////
890///////Newton////
384///////Anna//////
662///////Clay//////
37////////Marc//////
255///////Giovani///
575///////Andreane//
914///////Willard///
634///////Bert//////
227///////Kathleen//
808///////Rupert////
474///////Ulices////
466///////Darrin////
648///////Sandy/////
202///////Liza//////
818///////Makayla///
379///////Dale//////
111///////Bradford//
294///////Anastasia/
841///////Jaden/////
885///////Kirsten///
365///////Cassandre/
147///////Darlene///
781///////Susanna///
241///////Cassandra/
733///////Elroy/////
298///////Ewald/////
663///////Roel//////
132///////Aracely///
26////////Charity///
656///////Zion//////
85////////Trenton///